Please enter an integer value: 23

Please enter an integer value: 12

Please enter an integer value: 14

Please enter an integer value: 12
The sum of all integers is: 61

1
4
16
64
256
1024
4096
16384
65536
262144
The first value between 10 and 70 in data 2 is 16 on position 2
Press <RETURN> to close this window...

Second run:


Please enter an integer value: 12 34

Please enter an integer value: 12

Please enter an integer value: 10

Please enter an integer value: 10
The sum of all integers is: 44

1
4
16
64
256
1024
4096
16384
65536
262144
The first value between 10 and 70 in data 2 is 16 on position 2
Press <RETURN> to close this window...
