After <enter>:

======================================================================
| My program v0.0
|
|
|
| Dit is een text op regel 5:
| Ingetypt is 10.
|
|
======================================================================
|  System error bits: 00000000
======================================================================

Press <RETURN> to close this window...

